Sensitivity analysis for DOC, depth, and time of year — sens_kd_depth • pahwq
…
    Examples

sens_kd_depth(
  "Anthracene",
  lat = 52,
  lon = -113,
  Kd_ref = 40:45,
  depth_m = c(0.25, 0.5, 1),
  date = c("2023-07-01", "2023-08-01")
)
#> # A tibble: 36 × 11
#>      lat   lon elev_m depth_m date       Kd_ref tuv_res    pah     nlc50    pabs
#>    <dbl> <dbl>  <dbl>   <dbl> <date>      <int> <list>     <chr>   <dbl>   <dbl>
#>  1    52  -113    880    0.25 2023-07-01     40 <tv_rslts> anthra…  58.4 7.25e+1
#>  2    52  -113    880    0.5  2023-07-01     40 <tv_rslts> anthra…  58.4 3.15e+0
#>  3    52  -113    880    1    2023-07-01     40 <tv_rslts> anthra…  58.4 1.26e-2
#>  4    52  -113    880    0.25 2023-08-01     40 <tv_rslts> anthra…  58.4 6.05e+1
#>  5    52  -113    880    0.5  2023-08-01     40 <tv_rslts> anthra…  58.4 2.56e+0
#>  6    52  -113    880    1    2023-08-01     40 <tv_rslts> anthra…  58.4 9.83e-3
#>  7    52  -113    880    0.25 2023-07-01     41 <tv_rslts> anthra…  58.4 6.67e+1
#>  8    52  -113    880    0.5  2023-07-01     41 <tv_rslts> anthra…  58.4 2.72e+0
#>  9    52  -113    880    1    2023-07-01     41 <tv_rslts> anthra…  58.4 9.76e-3
#> 10    52  -113    880    0.25 2023-08-01     41 <tv_rslts> anthra…  58.4 5.56e+1
#> # ℹ 26 more rows
#> # ℹ 1 more variable: plc50 <dbl>
…
